{
  "project_info": {
    "project_number": "985504572786",
    "firebase_url": "https://anischik-f73fa.firebaseio.com",
    "project_id": "anischik-f73fa",
    "storage_bucket": "anischik-f73fa.appspot.com"
  },
  "client": [
    {
      "client_info": {
        "mobilesdk_app_id": "1:985504572786:android:0d37c6c1635ff46ed569eb",
        "android_client_info": {
          "package_name": "com.example.anischik"
        }
      },
      "oauth_client": [
        {
          "client_id": "985504572786-24djmal4c4f1c072hhmt4g81lhrak3k7.apps.googleusercontent.com",
          "client_type": 3
        }
      ],
      "api_key": [
        {
          "current_key": "AIzaSyDEO9YgqW5UtWal1Mt4MPBcJaU3xISZzzk"
        }
      ],
      "services": {
        "appinvite_service": {
          "other_platform_oauth_client": [
            {
              "client_id": "985504572786-24djmal4c4f1c072hhmt4g81lhrak3k7.apps.googleusercontent.com",
              "client_type": 3
            }
          ]
        }
      }
    }
  ],
  "configuration_version": "1"
}